Added Component: Designator=U2(PR35)
Added Pin To Net: NetName=GND Pin=U2-1
Added Pin To Net: NetName=NetR2_2 Pin=U2-2
Added Pin To Net: NetName=+5 Pin=U2-3
Added Member To Class: ClassName=clock Member=Component U2 DS1821
